Sunforest Progress Journal - 1 Sunforest: Assignment 1
…
In order to compare the general country B12 intakes in between, filter all the variables as 999 (representing general population) and take the mean and median for each country and summarise:

gdd_1 <- gdd %>%
  filter(age== 999, female == 999, urban == 999, edu == 999) %>%
  group_by(iso3, year) %>%
  summarise(mean_values = (lowerci_95+upperci_95)/2, median) %>%
arrange(desc(median))

`summarise()` has grouped output by 'iso3'. You can override using the
`.groups` argument.

gdd_1

# A tibble: 232 × 4
# Groups:   iso3 [29]
   iso3   year mean_values median
   <chr> <int>       <dbl>  <dbl>
 1 EST    2010        7.16   7.10
 2 EST    1990        7.15   7.09
 3 EST    2018        7.14   7.08
 4 EST    2005        7.13   7.08
 5 EST    2020        7.13   7.07
 6 EST    2015        7.12   7.07
 7 EST    2000        7.10   7.05
 8 EST    1995        7.07   7.00
 9 BLR    2020        4.50   4.10
10 BLR    2018        4.51   4.07
# ℹ 222 more rows
…
In terms of mean, there are outliers below 4 mg intake,but hard to recognise as the colors are similar, and consistently with median graph, EST is the upper outlier with higher intake.

1.3.2 |Comparison of Average B12 Intake of General Population For All The Years In Terms of Country

To show the general population mean B12 intake with a bar chart for each country, first we summarise the table with the average of all the years rather than for each year:

gdd_4 <- gdd %>%
  filter(age== 999, female == 999, urban == 999, edu == 999) %>%
  group_by(iso3) %>%
  summarise(mean_values = mean(lowerci_95+upperci_95)/2) %>%
  arrange(desc(mean_values))
gdd_4

# A tibble: 29 × 2
   iso3  mean_values
   <chr>       <dbl>
 1 EST          7.12
 2 CZE          4.45
 3 BLR          4.43
 4 RUS          4.39
 5 MNG          4.37
 6 LTU          4.37
 7 LVA          4.36
 8 HUN          4.33
 9 SVN          4.33
10 MNE          4.32
# ℹ 19 more rows
…
1.3.3 | Try To Understand if Any Specific Age Group Affects Lower Intake Countries’ Values:

1.3.3.1 |For Lower Intake Countries:

We can analyse the countries with outlier values in more detail. To see the effect of age groups for B12 intake, select countries BGR, ROU and POL (lower intake), select for all lifestyles, all education levels, all genders but only different age groups, and visualise the table:

gdd_6 <- gdd %>%
  filter(female == 999, urban == 999, edu == 999, age < 999, iso3 == "BGR" | iso3 == "ROU"| iso3 == "POL") %>%
  group_by(age) %>%
  #again to ensure we take the average of seperate years rather than all the years:
  summarise(mean_values = mean(lowerci_95+upperci_95)/2) %>%
  arrange(desc(mean_values))
gdd_6

# A tibble: 22 × 2
     age mean_values
   <dbl>       <dbl>
 1  22.5        3.61
 2  27.5        3.60
 3  32.5        3.57
 4  17.5        3.57
 5  37.5        3.53
 6  42.5        3.48
 7  12.5        3.43
 8  47.5        3.42
 9  52.5        3.37
10  57.5        3.31
# ℹ 12 more rows
…
We can see that B12 intake for children up tp 10 year is very low (ranging from 1.5 mg to 2.5mg), however for age groups taking higher B12, the average intake is roughly above 3. It seems there is no extreme low intake for some age groups affecting the average of these countries.

1.3.3.3 | All Countries:

To see if for lower intake countries the age group intake is similar to the other countries, we can prepare the same chart including all countries and prepare another bar chart:

gdd_8 <- gdd %>%
  filter(female == 999, urban == 999, edu == 999, age < 999) %>%
  group_by(age) %>%
  #again to ensure we take the average of seperate years rather than all the years:
  summarise(mean_values = mean(lowerci_95+upperci_95)/2) %>%
  arrange(desc(mean_values))
gdd_8

# A tibble: 22 × 2
     age mean_values
   <dbl>       <dbl>
 1  22.5        4.75
 2  27.5        4.74
 3  17.5        4.70
 4  32.5        4.70
 5  37.5        4.64
 6  42.5        4.58
 7  47.5        4.51
 8  52.5        4.44
 9  12.5        4.44
10  57.5        4.37
# ℹ 12 more rows
…
